Run MiDAS statistical analysis — runMiDAS • midasHLA
…
    Examples

# create MiDAS object
midas <- prepareMiDAS(hla_calls = MiDAS_tut_HLA,
                      colData = MiDAS_tut_pheno,
                      experiment = c("hla_alleles", "hla_aa")
)

# construct statistical model
object <- lm(disease ~ term, data = midas)

# run analysis
runMiDAS(object, experiment = "hla_alleles", inheritance_model = "dominant")
#> Warning: 'experiments' dropped; see 'metadata'
#> # A tibble: 447 × 14
#>    allele p.value p.adj…¹ estim…² std.e…³ conf.…⁴ conf.…⁵ stati…⁶ Ntotal Ntota…⁷
#>    <chr>    <dbl>   <dbl>   <dbl>   <dbl>   <dbl>   <dbl>   <dbl>  <dbl> <formt>
#>  1 DQB1*… 1.73e-6 7.73e-4  0.189   0.0393  0.112   0.266     4.81    198 9.90%  
#>  2 DRB1*… 5.29e-6 2.36e-3  0.177   0.0387  0.101   0.253     4.58    206 10.30% 
#>  3 B*57:… 1.34e-5 6.01e-3  0.254   0.0581  0.140   0.368     4.37     79 3.95%  
#>  4 C*07:… 1.60e-4 7.14e-2  0.148   0.0390  0.0713  0.224     3.79    204 10.20% 
#>  5 B*18:… 4.93e-4 2.20e-1 -0.168   0.0481 -0.262  -0.0737   -3.50    122 6.10%  
#>  6 DRA*0… 2.63e-3 1   e+0  0.0960  0.0319  0.0335  0.159     3.02    573 28.65% 
#>  7 DQB1*… 4.34e-3 1   e+0 -0.116   0.0406 -0.196  -0.0364   -2.86    185 9.25%  
#>  8 B*51:… 4.49e-3 1   e+0  0.134   0.0472  0.0418  0.227     2.85    128 6.40%  
#>  9 DRA*0… 1.02e-2 1   e+0 -0.118   0.0457 -0.207  -0.0279   -2.57    862 43.10% 
#> 10 DRB1*… 1.10e-2 1   e+0 -0.404   0.159  -0.715  -0.0929   -2.55     10 0.50%  
#> # … with 437 more rows, 4 more variables: `N(disease=0)` <dbl>,
#> #   `N(disease=0).percent` <formttbl>, `N(disease=1)` <dbl>,
#> #   `N(disease=1).percent` <formttbl>, and abbreviated variable names
#> #   ¹​p.adjusted, ²​estimate, ³​std.error, ⁴​conf.low, ⁵​conf.high, ⁶​statistic,
#> #   ⁷​Ntotal.percent
…
